MicroComputador/simulation/qsim/Micro_Computador.msim.vcd
$comment
	File created using the following command:
		vcd file Micro_Computador.msim.vcd -direction
$end
$date
	Fri Nov 04 15:52:15 2016
$end
$version
	ModelSim Version 10.4d
$end
$timescale
	1ps
$end

$scope module Micro_Computador_vlg_vec_tst $end
$var reg 1 ! Clear $end
$var reg 1 " Clock $end
$var wire 1 # Output [7] $end
$var wire 1 $ Output [6] $end
$var wire 1 % Output [5] $end
$var wire 1 & Output [4] $end
$var wire 1 ' Output [3] $end
$var wire 1 ( Output [2] $end
$var wire 1 ) Output [1] $end
$var wire 1 * Output [0] $end

$scope module i1 $end
$var wire 1 + gnd $end
$var wire 1 , vcc $end
$var wire 1 - unknown $end
$var tri1 1 . devclrn $end
$var tri1 1 / devpor $end
$var tri1 1 0 devoe $end
$var wire 1 1 Clock~input_o $end
$var wire 1 2 Clear~input_o $end
$var wire 1 3 Output[7]~output_o $end
$var wire 1 4 Output[6]~output_o $end
$var wire 1 5 Output[5]~output_o $end
$var wire 1 6 Output[4]~output_o $end
$var wire 1 7 Output[3]~output_o $end
$var wire 1 8 Output[2]~output_o $end
$var wire 1 9 Output[1]~output_o $end
$var wire 1 : Output[0]~output_o $end
$upscope $end
$upscope $end
$enddefinitions $end
#0
$dumpvars
1!
0"
0*
0)
0(
0'
0&
0%
0$
0#
0+
1,
x-
1.
1/
10
01
12
03
04
05
06
07
08
09
0:
$end
#11935
0!
02
#500000
1"
11
#874435
1!
12
#1000000
0"
01
#1281444
0!
02
#1500000
1"
11
#1616444
1!
12
#1781444
0!
02
#2000000
0"
01
#2116444
1!
12
#2275546
0!
02
#2495546
1!
12
#2500000
1"
11
#2608879
0!
02
#2828879
1!
12
#2942212
0!
02
#3000000
0"
01
#3162212
1!
12
#3281217
0!
02
#3366217
1!
12
#3447883
0!
02
#3500000
1"
11
#3532883
1!
12
#3614549
0!
02
#3699549
1!
12
#3779117
0!
02
#4000000
0"
01
#4009117
1!
12
#4112450
0!
02
#4342450
1!
12
#4445783
0!
02
#4500000
1"
11
#4675783
1!
12
#4768764
0!
02
#4936264
1!
12
#5000000
0"
01
#5018764
0!
02
#5186264
1!
12
#5279001
0!
02
#5356501
1!
12
#5404001
0!
02
#5481501
1!
12
#5500000
1"
11
#5532016
0!
02
#5711183
1!
12
#5948682
0!
02
#6000000
0"
01
#6127849
1!
12
#6365348
0!
02
#6500000
1"
11
#6544515
1!
12
#6757699
0!
02
#6796866
1!
12
#6841032
0!
02
#6880199
1!
12
#6924365
0!
02
#6963532
1!
12
#7000000
0"
01
#7028284
0!
02
#7228284
1!
12
#7444950
0!
02
#7500000
1"
11
#7644950
1!
12
#7861616
0!
02
#8000000
0"
01
#8061616
1!
12
#8270244
0!
02
#8500000
1"
11
#8652744
1!
12
#9000000
0"
01
#9023651
0!
02
#9328651
1!
12
#9500000
1"
11
#9516153
0!
02
#9799486
1!
12
#9932819
0!
02
#10000000
0"
01
#10216152
1!
12
#10349485
0!
02
#10500000
1"
11
#10632818
1!
12
#10773468
0!
02
#10853468
1!
12
#10940134
0!
02
#11000000
0"
01
#11020134
1!
12
#11106800
0!
02
#11186800
1!
12
#11259539
0!
02
#11312039
1!
12
#11342872
0!
02
#11395372
1!
12
#11426205
0!
02
#11478705
1!
12
#11500000
1"
11
#11506099
0!
02
#11732766
1!
12
#11839432
0!
02
#12000000
0"
01
#12066099
1!
12
#12172765
0!
02
#12399432
1!
12
#12500000
1"
11
#12507559
0!
02
#12807559
1!
12
#13000000
0"
01
#13132559
0!
02
#13432559
1!
12
#13500000
1"
11
#13775446
0!
02
#14000000
0"
01
#14131696
1!
12
#14400446
0!
02
#14500000
1"
11
#14756696
1!
12
#15000000
0"
01
#15024880
0!
02
#15162380
1!
12
#15274880
0!
02
#15412380
1!
12
#15500000
1"
11
#15506280
0!
02
#15785447
1!
12
#15922946
0!
02
#16000000
0"
01
#16202113
1!
12
#16339612
0!
02
#16500000
1"
11
#16618779
1!
12
#16770312
0!
02
#16887812
1!
12
#17000000
0"
01
#17020312
0!
02
#17137812
1!
12
#17268802
0!
02
#17500000
1"
11
#17918802
1!
12
#18000000
0"
01
#18267779
0!
02
#18500000
1"
11
#18513612
1!
12
#18684445
0!
02
#18930278
1!
12
#19000000
0"
01
#19101111
0!
02
#19346944
1!
12
#19500000
1"
11
#19516621
0!
02
#19826621
1!
12
#20000000
0"
01
#20018373
0!
02
#20500000
1"
11
#20528373
1!
12
#20771209
0!
02
#20903709
1!
12
#21000000
0"
01
#21021209
0!
02
#21153709
1!
12
#21271209
0!
02
#21403709
1!
12
#21500000
1"
11
#21531206
0!
02
#21568706
1!
12
#21614539
0!
02
#21652039
1!
12
#21697872
0!
02
#21735372
1!
12
#21781914
0!
02
#22000000
0"
01
#22081914
1!
12
#22500000
1"
11
#22526437
0!
02
#22777687
1!
12
#22901437
0!
02
#23000000
0"
01
#23152687
1!
12
#23271989
0!
02
#23311989
1!
12
#23355322
0!
02
#23395322
1!
12
#23438655
0!
02
#23478655
1!
12
#23500000
1"
11
#23507074
0!
02
#24000000
0"
01
#24207074
1!
12
#24500000
1"
11
#24770647
0!
02
#25000000
0"
01
#25130647
1!
12
#25500000
1"
11
#25502963
0!
02
#25752963
1!
12
#26000000
0"
01
#26127963
0!
02
#26377963
1!
12
#26500000
1"
11
#26768975
0!
02
#27000000
0"
01
#27168975
1!
12
#27500000
1"
11
#27769712
0!
02
#27984712
1!
12
#28000000
0"
01
#28277407
0!
02
#28477407
1!
12
#28500000
1"
11
#28777407
0!
02
#28977407
1!
12
#29000000
0"
01
#29258103
0!
02
#29390603
1!
12
#29500000
1"
11
#29522606
0!
02
#30000000
0"
01
#30022606
1!
12
#30500000
1"
11
#30767816
0!
02
#30927816
1!
12
#31000000
0"
01
#31017816
0!
02
#31177816
1!
12
#31263129
0!
02
#31500000
1"
11
#31514379
1!
12
#31638129
0!
02
#31889379
1!
12
#32000000
0"
01
#32011194
0!
02
#32431194
1!
12
#32500000
1"
11
#33000000
0"
01
#33027262
0!
02
#33125595
1!
12
#33193928
0!
02
#33292261
1!
12
#33360594
0!
02
#33458927
1!
12
#33500000
1"
11
#33525156
0!
02
#33720156
1!
12
#33900156
0!
02
#34000000
0"
01
#34095156
1!
12
#34273039
0!
02
#34500000
1"
11
#34648039
1!
12
#35000000
0"
01
#35025925
0!
02
#35093425
1!
12
#35150925
0!
02
#35218425
1!
12
#35265349
0!
02
#35500000
1"
11
#35865349
1!
12
#36000000
0"
01
#36500000
1"
11
#36513597
0!
02
#36813597
1!
12
#37000000
0"
01
#37013597
0!
02
#37313597
1!
12
#37500000
1"
11
#37526907
0!
02
#37836907
1!
12
#38000000
0"
01
#38016130
0!
02
#38321130
1!
12
#38500000
1"
11
#38526943
0!
02
#38786943
1!
12
#39000000
0"
01
#39026943
0!
02
#39286943
1!
12
#39500000
1"
11
#39505500
0!
02
#39628000
1!
12
#39755500
0!
02
#39878000
1!
12
#40000000
0"
01
#40021444
0!
02
#40191444
1!
12
#40271444
0!
02
#40441444
1!
12
#40500000
1"
11
#40530952
0!
02
#40581786
1!
12
#40614285
0!
02
#40665119
1!
12
#40697618
0!
02
#40748452
1!
12
#40750034
0!
02
#40910034
1!
12
#41000000
0"
01
#41012281
0!
02
#41362281
1!
12
#41500000
1"
11
#41637281
0!
02
#41987281
1!
12
#42000000
0"
01
#42251636
0!
02
#42469136
1!
12
#42500000
1"
11
#42626636
0!
02
#42844136
1!
12
#43000000
0"
01
#43012338
0!
02
#43237338
1!
12
#43500000
1"
11
#43504009
0!
02
#43829009
1!
12
#44000000
0"
01
#44005742
0!
02
#44138242
1!
12
#44280373
0!
02
#44324540
1!
12
#44363706
0!
02
#44407873
1!
12
#44447039
0!
02
#44491206
1!
12
#44500000
1"
11
#44528504
0!
02
#44576004
1!
12
#44611837
0!
02
#44659337
1!
12
#44695170
0!
02
#44742670
1!
12
#44764365
0!
02
#44812699
1!
12
#44847698
0!
02
#44896032
1!
12
#44931031
0!
02
#44979365
1!
12
#45000000
0"
01
#45020467
0!
02
#45335467
1!
12
#45500000
1"
11
#45520467
0!
02
#45835467
1!
12
#46000000
0"
01
#46013166
0!
02
#46500000
1"
11
#46533166
1!
12
#47000000
0"
01
#47015892
0!
02
#47165892
1!
12
#47265892
0!
02
#47415892
1!
12
#47500000
1"
11
#47515110
0!
02
#47850110
1!
12
#48000000
0"
01
#48015110
0!
02
#48350110
1!
12
#48500000
1"
11
#48526851
0!
02
#48595601
1!
12
#48651851
0!
02
#48720601
1!
12
#48779929
0!
02
#48942429
1!
12
#49000000
0"
01
#49029929
0!
02
#49192429
1!
12
#49262637
0!
02
#49500000
1"
11
#49900137
1!
12
#50000000
0"
01
#50500000
1"
11
#50502861
0!
02
#50921611
1!
12
#51000000
0"
01
#51127861
0!
02
#51500000
1"
11
#51546611
1!
12
#51750725
0!
02
#51979892
1!
12
#52000000
0"
01
#52167391
0!
02
#52396558
1!
12
#52500000
1"
11
#52584057
0!
02
#52813224
1!
12
#53000000
0"
01
#53011391
0!
02
#53058891
1!
12
#53094724
0!
02
#53142224
1!
12
#53178057
0!
02
#53225557
1!
12
#53281598
0!
02
#53364931
1!
12
#53448264
0!
02
#53500000
1"
11
#53531597
1!
12
#53614930
0!
02
#53698263
1!
12
#53773708
0!
02
#53931208
1!
12
#54000000
0"
01
#54025762
0!
02
#54500000
1"
11
#54535762
1!
12
#55000000
0"
01
#55005337
0!
02
#55107837
1!
12
#55255337
0!
02
#55357837
1!
12
#55500000
1"
11
#55531679
0!
02
#55944179
1!
12
#56000000
0"
01
#56263468
0!
02
#56371801
1!
12
#56430134
0!
02
#56500000
1"
11
#56538467
1!
12
#56596800
0!
02
#56705133
1!
12
#56752661
0!
02
#57000000
0"
01
#57102661
1!
12
#57266864
0!
02
#57500000
1"
11
#57581864
1!
12
#57766864
0!
02
#58000000
0"
01
#58081864
1!
12
#58270233
0!
02
#58307733
1!
12
#58353566
0!
02
#58391066
1!
12
#58436899
0!
02
#58474399
1!
12
#58500000
1"
11
#58531157
0!
02
#58584907
1!
12
#58656157
0!
02
#58709907
1!
12
#58763685
0!
02
#59000000
0"
01
#59113685
1!
12
#59388685
0!
02
#59500000
1"
11
#59738685
1!
12
#60000000
0"
01
#60012477
0!
02
#60292477
1!
12
#60500000
1"
11
#60524389
0!
02
#60594389
1!
12
#60649389
0!
02
#60719389
1!
12
#60750944
0!
02
#60974278
1!
12
#61000000
0"
01
#61084277
0!
02
#61307611
1!
12
#61417610
0!
02
#61500000
1"
11
#61640944
1!
12
#61781852
0!
02
#62000000
0"
01
#62500000
1"
11
#62644352
1!
12
#63000000
0"
01
#63022489
0!
02
#63219156
1!
12
#63355822
0!
02
#63500000
1"
11
#63552489
1!
12
#63689155
0!
02
#63885822
1!
12
#64000000
0"
01
#64029613
0!
02
#64109613
1!
12
#64154613
0!
02
#64234613
1!
12
#64261159
0!
02
#64433659
1!
12
#64500000
1"
11
#64523330
0!
02
#64639997
1!
12
#64689996
0!
02
#64806663
1!
12
#64856662
0!
02
#64973329
1!
12
#65000000
0"
01
#65014045
0!
02
#65268212
1!
12
#65430711
0!
02
#65500000
1"
11
#65684878
1!
12
#65847377
0!
02
#66000000
0"
01
#66101544
1!
12
#66266569
0!
02
#66500000
1"
11
#66979069
1!
12
#67000000
0"
01
#67500000
1"
11
#67523474
0!
02
#67668474
1!
12
#67767073
0!
02
#68000000
0"
01
#68379573
1!
12
#68500000
1"
11
#69000000
0"
01
#69026289
0!
02
#69178789
1!
12
#69280753
0!
02
#69415753
1!
12
#69500000
1"
11
#69508074
0!
02
#69920574
1!
12
#70000000
0"
01
#70133074
0!
02
#70500000
1"
11
#70545574
1!
12
#70760610
0!
02
#71000000
0"
01
#71105610
1!
12
#71500000
1"
11
#71510624
0!
02
#71835624
1!
12
#72000000
0"
01
#72022753
0!
02
#72155253
1!
12
#72272753
0!
02
#72405253
1!
12
#72500000
1"
11
#72522753
0!
02
#72655253
1!
12
#72763289
0!
02
#73000000
0"
01
#73293289
1!
12
#73500000
1"
11
#73756910
0!
02
#73963577
1!
12
#74000000
0"
01
#74090243
0!
02
#74296910
1!
12
#74423576
0!
02
#74500000
1"
11
#74630243
1!
12
#74781410
0!
02
#74886410
1!
12
#75000000
0"
01
#75031410
0!
02
#75136410
1!
12
#75281410
0!
02
#75386410
1!
12
#75500000
1"
11
#75516175
0!
02
#75853675
1!
12
#76000000
0"
01
#76141175
0!
02
#76478675
1!
12
#76500000
1"
11
#76755848
0!
02
#76825848
1!
12
#76922514
0!
02
#76992514
1!
12
#77000000
0"
01
#77089180
0!
02
#77159180
1!
12
#77268477
0!
02
#77500000
1"
11
#77848477
1!
12
#78000000
0"
01
#78257919
0!
02
#78397919
1!
12
#78500000
1"
11
#78513445
0!
02
#78910945
1!
12
#79000000
0"
01
#79256047
0!
02
#79500000
1"
11
#79918547
1!
12
#80000000
0"
01
#80500000
1"
11
#80505913
0!
02
#81000000
0"
01
#81145913
1!
12
#81500000
1"
11
#81513346
0!
02
#81888346
1!
12
#82000000
0"
01
#82138346
0!
02
#82500000
1"
11
#82513346
1!
12
#82782669
0!
02
#82970169
1!
12
#83000000
0"
01
#83157669
0!
02
#83345169
1!
12
#83500000
1"
11
#83526311
0!
02
#83746311
1!
12
#84000000
0"
01
#84026311
0!
02
#84246311
1!
12
#84500000
1"
11
#84513083
0!
02
#84943083
1!
12
#85000000
0"
01
#85500000
1"
11
#85516755
0!
02
#85615088
1!
12
#85683421
0!
02
#85781754
1!
12
#85850087
0!
02
#85948420
1!
12
#86000000
0"
01
#86013423
0!
02
#86216757
1!
12
#86346756
0!
02
#86500000
1"
11
#86550090
1!
12
#86680089
0!
02
#86883423
1!
12
#87000000
0"
01
#87009754
0!
02
#87162254
1!
12
#87257371
0!
02
#87500000
1"
11
#87607371
1!
12
#87757371
0!
02
#88000000
0"
01
#88107371
1!
12
#88268250
0!
02
#88500000
1"
11
#88618250
1!
12
#88768250
0!
02
#89000000
0"
01
#89118250
1!
12
#89267460
0!
02
#89500000
1"
11
#89522460
1!
12
#89780881
0!
02
#90000000
0"
01
#90298381
1!
12
#90500000
1"
11
#90514851
0!
02
#90592351
1!
12
#90639851
0!
02
#90717351
1!
12
#90770306
0!
02
#90980306
1!
12
#91000000
0"
01
#91145306
0!
02
#91355306
1!
12
#91500000
1"
11
#91503430
0!
02
#91798430
1!
12
#92000000
0"
01
#92003430
0!
02
#92298430
1!
12
#92500000
1"
11
#92504772
0!
02
#93000000
0"
01
#93104772
1!
12
#93500000
1"
11
#93776076
0!
02
#93976076
1!
12
#94000000
0"
01
#94109409
0!
02
#94309409
1!
12
#94442742
0!
02
#94500000
1"
11
#94642742
1!
12
#94781858
0!
02
#95000000
0"
01
#95411858
1!
12
#95500000
1"
11
#95777580
0!
02
#96000000
0"
01
#96032580
1!
12
#96152580
0!
02
#96407580
1!
12
#96500000
1"
11
#96518860
0!
02
#96956360
1!
12
#97000000
0"
01
#97143860
0!
02
#97500000
1"
11
#97581360
1!
12
#97750175
0!
02
#98000000
0"
01
#98001425
1!
12
#98125175
0!
02
#98376425
1!
12
#98500000
1"
11
#98506868
0!
02
#98819368
1!
12
#99000000
0"
01
#99131868
0!
02
#99444368
1!
12
#99500000
1"
11
#99768481
0!
02
#99825981
1!
12
#99893481
0!
02
#99950981
1!
12
