MicroComputador/simulation/qsim/Micro_Computador.msim.vcd
$comment
	File created using the following command:
		vcd file Micro_Computador.msim.vcd -direction
$end
$date
	Sun Oct 30 21:31:08 2016
$end
$version
	ModelSim Version 10.4d
$end
$timescale
	1ps
$end

$scope module FFJK_vlg_vec_tst $end
$var reg 1 ! CLK $end
$var reg 1 " J $end
$var reg 1 # K $end
$var wire 1 $ Q $end
$var wire 1 % Qq $end

$scope module i1 $end
$var wire 1 & gnd $end
$var wire 1 ' vcc $end
$var wire 1 ( unknown $end
$var tri1 1 ) devclrn $end
$var tri1 1 * devpor $end
$var tri1 1 + devoe $end
$var wire 1 , Q~output_o $end
$var wire 1 - Qq~output_o $end
$var wire 1 . K~input_o $end
$var wire 1 / CLK~input_o $end
$var wire 1 0 J~input_o $end
$var wire 1 1 inst3~combout $end
$var wire 1 2 inst2~combout $end
$upscope $end
$upscope $end
$enddefinitions $end
#0
$dumpvars
0!
0"
1#
x$
x%
0&
1'
x(
1)
1*
1+
x,
x-
1.
0/
00
x1
x2
$end
#50000
1!
#50685
1/
#100000
0!
#100801
0/
#150000
1"
0#
1!
#150685
1/
10
#150801
0.
#200000
0!
#200801
0/
#250000
0"
1#
1!
#250685
1/
1.
#250801
00
#300000
1"
0#
0!
#300685
10
#300801
0/
0.
#350000
0"
1#
1!
#350685
1/
1.
#350801
00
#400000
0#
0!
#400801
0/
0.
#450000
1!
#450685
1/
#500000
0!
#500801
0/
#550000
1"
1!
#550685
1/
10
#600000
0!
#600801
0/
#650000
1#
1!
#650685
1/
1.
#700000
0"
0#
0!
#700801
0/
0.
00
#750000
1"
1!
#750685
1/
10
#800000
0!
#800801
0/
#850000
1!
#850685
1/
#900000
1#
0"
0!
#900685
1.
#900801
0/
00
#950000
0#
1!
#950685
1/
#950801
0.
