Somador/simulation/qsim/Somador_Completo.msim.vcd
$comment
	File created using the following command:
		vcd file Somador_Completo.msim.vcd -direction
$end
$date
	Thu Oct 27 11:35:40 2016
$end
$version
	ModelSim Version 10.4d
$end
$timescale
	1ps
$end

$scope module Somador_Completo_vlg_vec_tst $end
$var reg 1 ! cin $end
$var reg 1 " x $end
$var reg 1 # y $end
$var wire 1 $ cout $end
$var wire 1 % s $end

$scope module i1 $end
$var wire 1 & gnd $end
$var wire 1 ' vcc $end
$var wire 1 ( unknown $end
$var tri1 1 ) devclrn $end
$var tri1 1 * devpor $end
$var tri1 1 + devoe $end
$var wire 1 , cout~output_o $end
$var wire 1 - s~output_o $end
$var wire 1 . y~input_o $end
$var wire 1 / x~input_o $end
$var wire 1 0 cin~input_o $end
$var wire 1 1 inst2~0_combout $end
$var wire 1 2 inst1|inst1~0_combout $end
$upscope $end
$upscope $end
$enddefinitions $end
#0
$dumpvars
0!
1"
0#
x$
x%
0&
1'
x(
1)
1*
1+
x,
x-
0.
1/
00
x1
x2
$end
#4203
01
#4218
12
#7793
0,
0$
#8024
1-
1%
#200000
0"
#200801
0/
#204449
02
#208189
0-
0%
#400000
1#
#400685
1.
#404590
12
#408396
1-
1%
#600000
1"
#600685
1/
#604079
02
#604085
11
#607714
1,
1$
#607819
0-
0%
#800000
0#
0"
#800801
0/
0.
#804450
01
#804454
12
#804982
02
#808040
0,
0$
